#FIG 3.2  Produced by xfig version 3.2.7a
Landscape
Center
Metric
A4
100.00
Single
-2
1200 2
0 32 #414541
0 33 #c0c0c0
5 1 0 3 4 7 50 -1 -1 0.000 0 0 1 0 5231.323 1869.444 6255 2070 5490 2880 4545 2655
	2 1 1.00 60.00 120.00
5 1 0 3 4 7 50 -1 -1 0.000 0 0 1 0 2168.290 3383.290 4320 3420 3690 4905 2205 5535
	2 1 1.00 60.00 120.00
5 1 0 3 4 7 50 -1 -1 0.000 0 1 1 0 4205.305 2889.329 4590 2700 4095 2475 3780 2835
	2 1 1.00 60.00 120.00
5 1 0 3 4 7 50 -1 -1 0.000 0 0 1 0 2227.116 4926.118 3780 2835 4680 4050 4770 5490
	2 1 1.00 60.00 120.00
# Female power receptacle
6 5490 855 7740 2205
5 1 0 1 -1 -1 0 0 -1 0.000 0 1 0 0 5688.844 1524.375 5581 1381 5510 1524 5581 1667
5 1 0 1 -1 -1 0 0 -1 0.000 0 0 0 0 7546.219 1524.375 7653 1381 7724 1524 7653 1667
1 3 0 1 -1 -1 0 0 -1 0.000 1 0.0000 5653 1524 71 71 5653 1524 5724 1524
1 3 0 1 -1 -1 0 0 -1 0.000 1 0.0000 7581 1524 71 71 7581 1524 7653 1524
2 1 0 1 -1 -1 0 0 -1 0.000 0 0 -1 0 0 2
	 5581 1381 6081 881
2 1 0 1 -1 -1 0 0 -1 0.000 0 0 -1 0 0 2
	 7153 881 7653 1381
2 1 0 1 -1 -1 0 0 -1 0.000 0 0 -1 0 0 2
	 5581 1667 6081 2167
2 1 0 1 -1 -1 0 0 -1 0.000 0 0 -1 0 0 2
	 7153 2167 7653 1667
2 3 0 1 -1 -1 0 0 -1 0.000 0 0 -1 0 0 10
	 5938 1310 6153 1095 7081 1095 7296 1310 7296 1810 7081 2024
	 6153 2024 5938 1810 5938 1381 5938 1310
2 1 0 1 -1 -1 0 0 -1 0.000 0 0 -1 0 0 2
	 6081 881 7153 881
2 1 0 1 -1 -1 0 0 -1 0.000 0 0 -1 0 0 2
	 6081 2167 7153 2167
2 3 0 1 -1 -1 0 0 -1 0.000 0 0 -1 0 0 9
	 6081 1381 6224 1238 7010 1238 7153 1381 7153 1738 6938 1881
	 6296 1881 6081 1738 6081 1381
2 2 0 1 -1 -1 0 0 -1 0.000 0 0 0 0 0 5
	 6653 1595 6653 1310 6581 1310 6581 1595 6653 1595
2 2 0 1 -1 -1 0 0 -1 0.000 0 0 0 0 0 5
	 6296 1738 6296 1452 6224 1452 6224 1738 6296 1738
2 2 0 1 -1 -1 0 0 -1 0.000 0 0 0 0 0 5
	 7010 1738 7010 1452 6938 1452 6938 1738 7010 1738
-6
# Ground
6 6480 2250 6795 2610
2 1 0 1 -1 -1 0 0 -1 0.000 0 0 -1 0 0 2
	 6623 2285 6623 2428
2 1 0 1 -1 -1 0 0 -1 0.000 0 0 -1 0 0 2
	 6481 2428 6766 2428
2 1 0 1 -1 -1 0 0 -1 0.000 0 0 -1 0 0 2
	 6552 2500 6695 2500
2 1 0 1 -1 -1 0 0 -1 0.000 0 0 -1 0 0 2
	 6595 2571 6666 2571
-6
1 4 0 4 0 7 50 -1 -1 0.000 1 0.0000 3600 1462 350 350 3250 1462 3950 1462
2 1 0 4 0 7 50 -1 -1 0.000 0 0 -1 0 0 4
	 3600 3735 3060 4590 1980 5580 2430 5670
2 1 0 1 0 7 50 -1 -1 0.000 0 0 -1 0 0 2
	 1800 5625 5085 5625
2 1 0 1 0 7 50 -1 -1 0.000 0 0 -1 0 0 2
	 1935 5625 1755 5850
2 1 0 1 0 7 50 -1 -1 0.000 0 0 -1 0 0 2
	 2160 5625 1980 5850
2 1 0 1 0 7 50 -1 -1 0.000 0 0 -1 0 0 2
	 2430 5625 2250 5850
2 1 0 1 0 7 50 -1 -1 0.000 0 0 -1 0 0 2
	 2655 5625 2475 5850
2 1 0 1 0 7 50 -1 -1 0.000 0 0 -1 0 0 2
	 2880 5625 2700 5850
2 1 0 1 0 7 50 -1 -1 0.000 0 0 -1 0 0 2
	 3105 5625 2925 5850
2 1 0 1 0 7 50 -1 -1 0.000 0 0 -1 0 0 2
	 3330 5625 3150 5850
2 1 0 1 0 7 50 -1 -1 0.000 0 0 -1 0 0 2
	 3555 5625 3375 5850
2 1 0 1 0 7 50 -1 -1 0.000 0 0 -1 0 0 2
	 3780 5625 3600 5850
2 1 0 1 0 7 50 -1 -1 0.000 0 0 -1 0 0 2
	 4005 5625 3825 5850
2 1 0 1 0 7 50 -1 -1 0.000 0 0 -1 0 0 2
	 4230 5625 4050 5850
2 1 0 1 0 7 50 -1 -1 0.000 0 0 -1 0 0 2
	 4455 5625 4275 5850
2 1 0 1 0 7 50 -1 -1 0.000 0 0 -1 0 0 2
	 4725 5625 4545 5850
2 1 0 1 0 7 50 -1 -1 0.000 0 0 -1 0 0 2
	 4950 5625 4770 5850
2 1 0 4 0 7 50 -1 -1 0.000 0 0 -1 0 0 5
	 3510 2790 3600 3690 4365 4500 4455 5625 4815 5625
2 1 0 3 0 7 50 -1 -1 0.000 0 0 -1 0 0 2
	 4815 5625 4905 5580
2 1 0 4 0 7 50 -1 -1 0.000 0 0 -1 0 0 4
	 3555 2205 2610 2610 2745 3285 2565 3465
2 1 0 4 0 7 50 -1 -1 0.000 0 0 -1 0 0 2
	 3600 1845 3510 2790
2 1 0 4 0 7 50 -1 -1 0.000 0 0 -1 0 0 4
	 3555 2160 4770 2475 6075 1620 6300 1665
2 1 0 1 0 7 50 -1 -1 0.000 0 0 -1 0 0 2
	 6975 1620 6975 450
2 1 0 1 0 7 50 -1 -1 0.000 0 0 -1 0 0 2
	 6255 1620 6255 450
2 1 0 1 0 7 50 -1 -1 0.000 0 0 -1 0 0 2
	 6615 1575 6615 2295
2 1 0 3 4 7 50 -1 -1 0.000 0 0 -1 0 0 2
	 4635 2700 4725 2925
2 1 0 3 4 7 50 -1 -1 0.000 0 0 -1 0 0 2
	 4590 2700 4815 2700
2 1 0 3 4 7 50 -1 -1 0.000 0 0 -1 0 0 2
	 3780 2790 3735 2565
2 1 0 3 4 7 50 -1 -1 0.000 0 0 -1 0 0 2
	 3780 2790 4005 2700
2 1 0 3 4 7 50 -1 -1 0.000 0 0 -1 0 0 2
	 4815 5400 4680 5085
2 1 0 3 4 7 50 -1 -1 0.000 0 0 -1 0 0 2
	 4815 5355 4995 5130
2 1 0 3 4 7 50 -1 -1 0.000 0 0 -1 0 0 2
	 2340 5535 2565 5580
2 1 0 3 4 7 50 -1 -1 0.000 0 0 -1 0 0 2
	 2340 5535 2520 5400
4 0 0 50 -1 0 12 0.0000 4 135 105 6030 540 P\001
4 0 0 50 -1 0 12 0.0000 4 135 135 7110 540 N\001
